1;./ru_faces/1/rec_img_77.2.pgm
1;./ru_faces/1/rec_img_79.9.pgm
1;./ru_faces/1/rec_img_86.2.pgm
10;./ru_faces/10/rec_img_129.6.pgm
10;./ru_faces/10/rec_img_14.1.pgm
10;./ru_faces/10/rec_img_16.9.pgm
10;./ru_faces/10/rec_img_43.0.pgm
10;./ru_faces/10/rec_img_44.1.pgm
10;./ru_faces/10/rec_img_45.0.pgm
10;./ru_faces/10/rec_img_46.2.pgm
10;./ru_faces/10/rec_img_67.0.pgm
10;./ru_faces/10/rec_img_70.3.pgm
10;./ru_faces/10/rec_img_72.1.pgm
10;./ru_faces/10/rec_img_75.4.pgm
10;./ru_faces/10/rec_img_77.0.pgm
10;./ru_faces/10/rec_img_90.0.pgm
10;./ru_faces/10/rec_img_95.0.pgm
11;./ru_faces/11/rec_img_129.11.pgm
11;./ru_faces/11/rec_img_16.13.pgm
11;./ru_faces/11/rec_img_19.2.pgm
11;./ru_faces/11/rec_img_2.0.pgm
11;./ru_faces/11/rec_img_24.0.pgm
11;./ru_faces/11/rec_img_29.0.pgm
11;./ru_faces/11/rec_img_61.0.pgm
12;./ru_faces/12/rec_img_129.5.pgm
12;./ru_faces/12/rec_img_16.2.pgm
12;./ru_faces/12/rec_img_41.1.pgm
12;./ru_faces/12/rec_img_79.6.pgm
12;./ru_faces/12/rec_img_86.1.pgm
12;./ru_faces/12/rec_img_96.0.pgm
14;./ru_faces/14/rec_img_126.0.pgm
14;./ru_faces/14/rec_img_129.7.pgm
14;./ru_faces/14/rec_img_16.1.pgm
14;./ru_faces/14/rec_img_3.0.pgm
14;./ru_faces/14/rec_img_52.0.pgm
14;./ru_faces/14/rec_img_68.0.pgm
14;./ru_faces/14/rec_img_79.3.pgm
14;./ru_faces/14/rec_img_84.0.pgm
14;./ru_faces/14/rec_img_94.0.pgm
14;./ru_faces/14/rec_img_97.0.pgm
15;./ru_faces/15/rec_img_128.1.pgm
15;./ru_faces/15/rec_img_129.2.pgm
15;./ru_faces/15/rec_img_16.6.pgm
15;./ru_faces/15/rec_img_21.2.pgm
15;./ru_faces/15/rec_img_44.2.pgm
15;./ru_faces/15/rec_img_71.0.pgm
15;./ru_faces/15/rec_img_72.2.pgm
15;./ru_faces/15/rec_img_77.3.pgm
15;./ru_faces/15/rec_img_79.5.pgm
15;./ru_faces/15/rec_img_84.2.pgm
15;./ru_faces/15/rec_img_91.0.pgm
15;./ru_faces/15/rec_img_96.1.pgm
15;./ru_faces/15/rec_img_97.1.pgm
15;./ru_faces/15/rec_img_98.2.pgm
16;./ru_faces/16/rec_img_79.4.pgm
17;./ru_faces/17/rec_img_119.4.pgm
17;./ru_faces/17/rec_img_120.0.pgm
17;./ru_faces/17/rec_img_123.0.pgm
17;./ru_faces/17/rec_img_127.1.pgm
17;./ru_faces/17/rec_img_129.12.pgm
17;./ru_faces/17/rec_img_13.0.pgm
17;./ru_faces/17/rec_img_16.4.pgm
17;./ru_faces/17/rec_img_36.1.pgm
17;./ru_faces/17/rec_img_4.3.pgm
17;./ru_faces/17/rec_img_41.0.pgm
17;./ru_faces/17/rec_img_53.0.pgm
17;./ru_faces/17/rec_img_6.2.pgm
17;./ru_faces/17/rec_img_68.1.pgm
17;./ru_faces/17/rec_img_76.1.pgm
17;./ru_faces/17/rec_img_79.1.pgm
2;./ru_faces/2/rec_img_21.5.pgm
2;./ru_faces/2/rec_img_24.2.pgm
2;./ru_faces/2/rec_img_32.0.pgm
2;./ru_faces/2/rec_img_34.1.pgm
2;./ru_faces/2/rec_img_39.0.pgm
2;./ru_faces/2/rec_img_44.0.pgm
2;./ru_faces/2/rec_img_46.1.pgm
2;./ru_faces/2/rec_img_51.0.pgm
2;./ru_faces/2/rec_img_55.0.pgm
2;./ru_faces/2/rec_img_6.3.pgm
2;./ru_faces/2/rec_img_65.0.pgm
2;./ru_faces/2/rec_img_67.1.pgm
2;./ru_faces/2/rec_img_70.1.pgm
2;./ru_faces/2/rec_img_72.0.pgm
2;./ru_faces/2/rec_img_77.4.pgm
2;./ru_faces/2/rec_img_79.2.pgm
2;./ru_faces/2/rec_img_86.0.pgm
2;./ru_faces/2/rec_img_94.1.pgm
4;./ru_faces/4/rec_img_16.3.pgm
4;./ru_faces/4/rec_img_21.0.pgm
4;./ru_faces/4/rec_img_3.1.pgm
4;./ru_faces/4/rec_img_31.0.pgm
4;./ru_faces/4/rec_img_36.0.pgm
4;./ru_faces/4/rec_img_4.0.pgm
4;./ru_faces/4/rec_img_49.0.pgm
4;./ru_faces/4/rec_img_6.4.pgm
4;./ru_faces/4/rec_img_79.11.pgm
4;./ru_faces/4/rec_img_9.0.pgm
4;./ru_faces/4/rec_img_94.4.pgm
5;./ru_faces/5/rec_img_15.0.pgm
5;./ru_faces/5/rec_img_16.5.pgm
5;./ru_faces/5/rec_img_21.1.pgm
5;./ru_faces/5/rec_img_25.0.pgm
5;./ru_faces/5/rec_img_31.2.pgm
5;./ru_faces/5/rec_img_36.2.pgm
5;./ru_faces/5/rec_img_4.1.pgm
5;./ru_faces/5/rec_img_47.0.pgm
5;./ru_faces/5/rec_img_6.1.pgm
5;./ru_faces/5/rec_img_64.0.pgm
5;./ru_faces/5/rec_img_70.0.pgm
5;./ru_faces/5/rec_img_75.0.pgm
5;./ru_faces/5/rec_img_79.0.pgm
5;./ru_faces/5/rec_img_80.0.pgm
5;./ru_faces/5/rec_img_89.0.pgm
5;./ru_faces/5/rec_img_9.1.pgm
5;./ru_faces/5/rec_img_94.2.pgm
5;./ru_faces/5/rec_img_98.1.pgm
6;./ru_faces/6/rec_img_22.0.pgm
6;./ru_faces/6/rec_img_24.1.pgm
6;./ru_faces/6/rec_img_38.0.pgm
6;./ru_faces/6/rec_img_46.3.pgm
6;./ru_faces/6/rec_img_54.0.pgm
6;./ru_faces/6/rec_img_55.1.pgm
6;./ru_faces/6/rec_img_6.5.pgm
6;./ru_faces/6/rec_img_65.1.pgm
6;./ru_faces/6/rec_img_75.2.pgm
6;./ru_faces/6/rec_img_79.10.pgm
6;./ru_faces/6/rec_img_81.0.pgm
6;./ru_faces/6/rec_img_82.2.pgm
7;./ru_faces/7/rec_img_130.0.pgm
7;./ru_faces/7/rec_img_16.0.pgm
7;./ru_faces/7/rec_img_30.0.pgm
7;./ru_faces/7/rec_img_35.0.pgm
7;./ru_faces/7/rec_img_46.0.pgm
7;./ru_faces/7/rec_img_56.0.pgm
7;./ru_faces/7/rec_img_6.0.pgm
7;./ru_faces/7/rec_img_7.0.pgm
7;./ru_faces/7/rec_img_76.0.pgm
7;./ru_faces/7/rec_img_84.1.pgm
7;./ru_faces/7/rec_img_99.0.pgm
8;./ru_faces/8/rec_img_4.2.pgm
8;./ru_faces/8/rec_img_40.0.pgm
8;./ru_faces/8/rec_img_5.1.pgm
8;./ru_faces/8/rec_img_50.0.pgm
8;./ru_faces/8/rec_img_70.4.pgm
8;./ru_faces/8/rec_img_75.1.pgm
8;./ru_faces/8/rec_img_77.1.pgm
8;./ru_faces/8/rec_img_79.8.pgm
8;./ru_faces/8/rec_img_9.2.pgm
8;./ru_faces/8/rec_img_94.3.pgm
9;./ru_faces/9/rec_img_14.0.pgm
9;./ru_faces/9/rec_img_16.8.pgm
9;./ru_faces/9/rec_img_31.1.pgm
9;./ru_faces/9/rec_img_33.0.pgm
9;./ru_faces/9/rec_img_41.2.pgm
9;./ru_faces/9/rec_img_60.0.pgm
9;./ru_faces/9/rec_img_69.0.pgm
9;./ru_faces/9/rec_img_70.2.pgm
9;./ru_faces/9/rec_img_79.7.pgm
9;./ru_faces/9/rec_img_82.1.pgm
9;./ru_faces/9/rec_img_92.0.pgm
