1;./ru_faces/1/rec_img_0.0.pgm
1;./ru_faces/1/rec_img_15.1.pgm
10;./ru_faces/10/rec_img_1.1.pgm
10;./ru_faces/10/rec_img_100.0.pgm
11;./ru_faces/11/rec_img_101.0.pgm
11;./ru_faces/11/rec_img_104.0.pgm
12;./ru_faces/12/rec_img_11.2.pgm
12;./ru_faces/12/rec_img_115.7.pgm
13;./ru_faces/13/rec_img_119.6.pgm
13;./ru_faces/13/rec_img_129.0.pgm
14;./ru_faces/14/rec_img_102.0.pgm
14;./ru_faces/14/rec_img_11.1.pgm
15;./ru_faces/15/rec_img_102.1.pgm
15;./ru_faces/15/rec_img_11.6.pgm
16;./ru_faces/16/rec_img_11.13.pgm
16;./ru_faces/16/rec_img_115.9.pgm
17;./ru_faces/17/rec_img_10.1.pgm
17;./ru_faces/17/rec_img_106.1.pgm
18;./ru_faces/18/rec_img_11.9.pgm
18;./ru_faces/18/rec_img_115.6.pgm
2;./ru_faces/2/rec_img_11.7.pgm
2;./ru_faces/2/rec_img_114.0.pgm
3;./ru_faces/3/rec_img_10.0.pgm
3;./ru_faces/3/rec_img_19.1.pgm
4;./ru_faces/4/rec_img_108.1.pgm
4;./ru_faces/4/rec_img_11.3.pgm
5;./ru_faces/5/rec_img_108.0.pgm
5;./ru_faces/5/rec_img_11.5.pgm
6;./ru_faces/6/rec_img_11.10.pgm
6;./ru_faces/6/rec_img_115.3.pgm
7;./ru_faces/7/rec_img_106.0.pgm
7;./ru_faces/7/rec_img_11.0.pgm
8;./ru_faces/8/rec_img_113.1.pgm
8;./ru_faces/8/rec_img_113.2.pgm
9;./ru_faces/9/rec_img_1.0.pgm
9;./ru_faces/9/rec_img_11.8.pgm
